// Jest Snapshot v1, https://goo.gl/fbAQLP

exports[`[SnapShot] Link changes the class when hovered 1`] = `
<a
  className="normal"
  href="http://www.facebook.com"
  onMouseEnter={[Function]}
  onMouseLeave={[Function]}
>
  http://www...
</a>
`;

exports[`[SnapShot] Link changes the class when hovered 2`] = `
<a
  className="hovered"
  href="http://www.facebook.com"
  onMouseEnter={[Function]}
  onMouseLeave={[Function]}
>
  http://www.facebook.com
</a>
`;

exports[`[SnapShot] Link changes the class when hovered 3`] = `
<a
  className="normal"
  href="http://www.facebook.com"
  onMouseEnter={[Function]}
  onMouseLeave={[Function]}
>
  http://www...
</a>
`;

exports[`Link Component [SnapShot] Link changes the class when hovered 1`] = `
<a
  className="normal"
  href="http://www.facebook.com"
  onMouseEnter={[Function]}
  onMouseLeave={[Function]}
>
  http://www...
</a>
`;

exports[`Link Component [SnapShot] Link changes the class when hovered 2`] = `
<a
  className="hovered"
  href="http://www.facebook.com"
  onMouseEnter={[Function]}
  onMouseLeave={[Function]}
>
  http://www.facebook.com
</a>
`;

exports[`Link Component [SnapShot] Link changes the class when hovered 3`] = `
<a
  className="normal"
  href="http://www.facebook.com"
  onMouseEnter={[Function]}
  onMouseLeave={[Function]}
>
  http://www...
</a>
`;
